<?xml version="1.0" encoding="UTF-8"?>
<svg width="24px" height="24px" viewBox="0 0 24 24" version="1.1" xmlns="http://www.w3.org/2000/svg" xmlns:xlink="http://www.w3.org/1999/xlink">
    <title>1E609C70-4417-4EBE-8C70-1821FAB16FB4@3x</title>
    <defs>
        <path d="M20.1250004,4 L8.84263713,4 C8.27804026,4 7.74889123,4.26691907 7.39058309,4.73370364 L2.14098576,11.5781503 C1.95300475,11.8235983 1.95300475,12.1764515 2.14098576,12.4218995 L7.39123693,19.266944 C7.74889123,19.7330809 8.27808696,20 8.84263713,20 L20.1250004,20 C21.1589193,20 22,19.102847 22,18 L22,6.00004982 C22,4.89715296 21.158966,4 20.1250004,4 Z M18,14.2362906 L16.2362906,16 L14,13.7637094 L11.7637094,16 L10,14.2362906 L12.2362906,12 L10,9.76370944 L11.7637094,8 L14,10.2362906 L16.2362906,8 L18,9.76370944 L15.7637094,12 C15.7636628,12 18,14.2362906 18,14.2362906 Z" id="path-1"></path>
    </defs>
    <g id="Style-Guide" stroke="none" stroke-width="1" fill="#2566C7" fill-rule="evenodd">
        <g id="Styleguide" transform="translate(-777.000000, -2560.000000)">
            <g id="Icon" transform="translate(62.000000, 2424.000000)">
                <g id="icons/erase-fill" transform="translate(715.000000, 136.000000)">
                    <rect id="baseline" fill-opacity="0" fill="#FFFFFF" x="0" y="0" width="24" height="24"></rect>
                    <mask id="mask-2" fill="white">
                        <use xlink:href="#path-1"></use>
                    </mask>
                    <use id="Mask" fill="#2566C7" fill-rule="nonzero" xlink:href="#path-1"></use>
                    <g id="Color" mask="url(#mask-2)" fill="#2566C7">
                        <rect id="Rectangle" x="0" y="0" width="24" height="24"></rect>
                    </g>
                </g>
            </g>
        </g>
    </g>
</svg>