<?xml version="1.0" encoding="UTF-8"?>
<svg width="24px" height="24px" viewBox="0 0 24 24" version="1.1" xmlns="http://www.w3.org/2000/svg" xmlns:xlink="http://www.w3.org/1999/xlink">
    <title>AAA7DF0B-1B66-4913-B8F1-C8A453EDB352</title>
    <defs>
        <path d="M18.8289758,17 C18.9397302,17.3130334 19,17.6499287 19,18.0009007 C19,19.657755 17.6568542,21.0009007 16,21.0009007 C14.3431458,21.0009007 13,19.657755 13,18.0009007 C13,17.6499287 13.0602698,17.3130334 13.1710242,17 L18.8289758,17 Z M10.8289758,17 C10.9397302,17.3130334 11,17.6499287 11,18.0009007 C11,19.657755 9.65685425,21.0009007 8,21.0009007 C6.34314575,21.0009007 5,19.657755 5,18.0009007 C5,17.6499287 5.06026977,17.3130334 5.17102423,17 L10.8289758,17 Z M18,8 C20.209139,8 22,9.790861 22,12 C22,14.1421954 20.3160315,15.8910789 18.1996403,15.9951047 L18,16 L6,16 C3.790861,16 2,14.209139 2,12 C2,9.85780461 3.68396847,8.10892112 5.80035966,8.00489531 L6,8 L18,8 Z M16,3 C17.6568542,3 19,4.34314575 19,6 C19,6.35097203 18.9397302,6.6878673 18.8289758,7.00090072 L13.1710242,7.00090072 C13.0602698,6.6878673 13,6.35097203 13,6 C13,4.34314575 14.3431458,3 16,3 Z M8,3 C9.65685425,3 11,4.34314575 11,6 C11,6.35097203 10.9397302,6.6878673 10.8289758,7.00090072 L5.17102423,7.00090072 C5.06026977,6.6878673 5,6.35097203 5,6 C5,4.34314575 6.34314575,3 8,3 Z" id="path-1"></path>
    </defs>
    <g id="Style-Guide" stroke="none" stroke-width="1" fill="none" fill-rule="evenodd">
        <g id="Styleguide" transform="translate(-585.000000, -2560.000000)">
            <g id="Icon" transform="translate(62.000000, 2424.000000)">
                <g id="icons/foodtable" transform="translate(523.000000, 136.000000)">
                    <rect id="baseline" fill-opacity="0" fill="#FFFFFF" x="0" y="0" width="24" height="24"></rect>
                    <mask id="mask-2" fill="white">
                        <use xlink:href="#path-1"></use>
                    </mask>
                    <use id="Mask" fill="#FFFFFF" xlink:href="#path-1"></use>
                    <g id="Color" mask="url(#mask-2)" fill="#FFFFFF">
                        <rect id="Rectangle" x="0" y="0" width="24" height="24"></rect>
                    </g>
                </g>
            </g>
        </g>
    </g>
</svg>