<?xml version="1.0" encoding="UTF-8"?>
<svg width="24px" height="24px" viewBox="0 0 24 24" version="1.1" xmlns="http://www.w3.org/2000/svg" xmlns:xlink="http://www.w3.org/1999/xlink">
    <title>AF727A51-3FAD-417A-A363-C6CB09410D0A</title>
    <defs>
        <path d="M12,13.2424795 C17.8880167,13.2424795 22,16.3244606 22,20.7370942 L22,20.7370942 L22,21.9862114 L2,21.9862114 L2,20.7370942 C2,16.3244606 6.11198329,13.2424795 12,13.2424795 Z M11.7337198,2 C14.4907354,2 16.7337641,4.24142474 16.7337641,6.99638034 C16.7337641,9.75142438 14.4907354,11.9928491 11.7337198,11.9928491 C8.97670426,11.9928491 6.73367556,9.75142438 6.73367556,6.99638034 C6.73367556,4.24142474 8.97670426,2 11.7337198,2 Z" id="path-1"></path>
    </defs>
    <g id="Style-Guide" stroke="none" stroke-width="1" fill="none" fill-rule="evenodd">
        <g id="Styleguide" transform="translate(-633.000000, -2560.000000)">
            <g id="Icon" transform="translate(62.000000, 2424.000000)">
                <g id="icons/user-fill" transform="translate(571.000000, 136.000000)">
                    <rect id="baseline" fill-opacity="0" fill="#FFFFFF" x="0" y="0" width="24" height="24"></rect>
                    <mask id="mask-2" fill="white">
                        <use xlink:href="#path-1"></use>
                    </mask>
                    <use id="Mask" fill="#fff" xlink:href="#path-1"></use>
                    <g id="Color" mask="url(#mask-2)" fill="#fff">
                        <rect id="Rectangle" x="0" y="0" width="24" height="24"></rect>
                    </g>
                </g>
            </g>
        </g>
    </g>
</svg>