<?xml version="1.0" encoding="UTF-8"?>
<svg width="24px" height="24px" viewBox="0 0 24 24" version="1.1" xmlns="http://www.w3.org/2000/svg" xmlns:xlink="http://www.w3.org/1999/xlink">
    <title>5D828FF5-7ACA-4BAA-8865-D3F1F58AE274@3x</title>
    <defs>
        <path d="M12,15.75 C9.87852166,15.75 8.14276666,14.0625 8.14276666,12 C8.14276666,9.9375 9.87852166,8.25 12,8.25 C14.1214783,8.25 15.8572333,9.9375 15.8572333,12 C15.8572333,14.0625 14.1214783,15.75 12,15.75 L12,15.75 Z M19.6501795,12.975 C19.6887518,12.6625 19.7144667,12.3375 19.7144667,12 C19.7144667,11.6625 19.6887518,11.3375 19.637322,11.025 L21.8102301,9.375 C22.0030918,9.225 22.0545216,8.95 21.9388046,8.7375 L19.8816135,5.275 C19.753039,5.05 19.4830327,4.975 19.2515987,5.05 L16.6929672,6.05 C16.1529546,5.65 15.587227,5.325 14.9572122,5.075 L14.5714889,2.425 C14.5329166,2.175 14.31434,2 14.0571911,2 L9.94280888,2 C9.68566,2 9.47994088,2.175 9.44136855,2.425 L9.05564522,5.075 C8.42563044,5.325 7.84704544,5.6625 7.31989021,6.05 L4.76125876,5.05 C4.52982476,4.9625 4.25981843,5.05 4.13124398,5.275 L2.07405287,8.7375 C1.94547842,8.9625 1.9969082,9.225 2.20262731,9.375 L4.37553543,11.025 C4.32410565,11.3375 4.28553332,11.675 4.28553332,12 C4.28553332,12.325 4.31124821,12.6625 4.36267798,12.975 L2.18976987,14.625 C1.9969082,14.775 1.94547842,15.05 2.06119542,15.2625 L4.11838654,18.725 C4.24696098,18.95 4.51696732,19.025 4.74840132,18.95 L7.30703277,17.95 C7.84704544,18.35 8.41277299,18.675 9.04278777,18.925 L9.42851111,21.575 C9.47994088,21.825 9.68566,22 9.94280888,22 L14.0571911,22 C14.31434,22 14.5329166,21.825 14.5586314,21.575 L14.9443548,18.925 C15.5743696,18.675 16.1529546,18.3375 16.6801098,17.95 L19.2387412,18.95 C19.4701752,19.0375 19.7401816,18.95 19.868756,18.725 L21.9259471,15.2625 C22.0545216,15.0375 22.0030918,14.775 21.7973727,14.625 L19.6501795,12.975 Z" id="path-1"></path>
    </defs>
    <g id="Style-Guide" stroke="none" stroke-width="1" fill="none" fill-rule="evenodd">
        <g id="Styleguide" transform="translate(-777.000000, -2512.000000)">
            <g id="Icon" transform="translate(62.000000, 2424.000000)">
                <g id="icons/settings-fill" transform="translate(715.000000, 88.000000)">
                    <rect id="baseline" fill-opacity="0" fill="#FFFFFF" x="0" y="0" width="24" height="24"></rect>
                    <mask id="mask-2" fill="white">
                        <use xlink:href="#path-1"></use>
                    </mask>
                    <use id="Mask" fill="#000000" xlink:href="#path-1"></use>
                    <g id="Color" mask="url(#mask-2)" fill="#fff">
                        <rect id="Rectangle" x="0" y="0" width="24" height="24"></rect>
                    </g>
                </g>
            </g>
        </g>
    </g>
</svg>