<?xml version="1.0" encoding="UTF-8"?>
<svg width="157px" height="214px" viewBox="0 0 157 214" version="1.1" xmlns="http://www.w3.org/2000/svg" xmlns:xlink="http://www.w3.org/1999/xlink">
    <title>18812B4F-A939-43E8-B2E3-5481D887C757@1.5x</title>
    <g id="Style-Guide" stroke="none" stroke-width="1" fill="none" fill-rule="evenodd">
        <g id="Styleguide" transform="translate(-244.000000, -4523.000000)">
            <g id="Logo" transform="translate(64.000000, 4339.000000)">
                <g id="Logo-PostPay-Solid" transform="translate(180.000000, 184.000000)">
                    <path d="M80.5935176,18.7902439 C110.923976,18.7902439 136.198252,40.6455104 141.363878,69.3421325 C141.786916,71.6916963 142.082821,74.0841194 142.227641,76.5175701 C142.299867,77.7297165 142.346667,78.9484566 142.346667,80.1781862 C142.346667,85.0875805 141.747486,89.8585065 140.647147,94.4382146 C134.16045,121.431091 109.705716,141.566128 80.5935176,141.566128 C63.4660285,141.566128 46.9450897,134.366514 35.268077,121.812429 L35.268077,121.812429 L31.9213644,118.213354 L31.9213644,166.785293 C31.9213644,170.370814 28.9866342,173.287805 25.3804979,173.287805 C21.7743617,173.287805 18.84,170.370814 18.84,166.785293 L18.84,166.785293 L18.84,80.1781862 C18.84,78.3114295 18.9383894,76.4681172 19.1031087,74.6431207 C21.928763,43.3786092 48.4198247,18.7902439 80.5935176,18.7902439 Z M144.080567,94.995122 C145.069599,95.1933264 146.052014,95.4924616 147.009438,95.9265367 C153.783071,98.9917579 156.775157,106.940416 153.69376,113.68083 C140.613996,142.281151 111.79794,160.760976 80.2816184,160.760976 C63.7591728,160.760976 48.3871056,155.78246 35.5866667,147.263324 L35.5866667,147.263324 L35.5866667,128.057603 C47.6682111,139.301501 63.7058806,145.66818 80.2816184,145.66818 C111.377482,145.66818 137.458725,123.969544 144.080567,94.995122 Z M80.5935176,31.7941678 C53.7556977,31.7941678 31.9213644,53.4981449 31.9213644,80.1781862 C31.9213644,81.7398 32.0028028,83.2819989 32.1487286,84.8058819 C34.500124,109.322083 55.3262427,128.562571 80.5935176,128.562571 C105.341208,128.562571 125.819095,110.103073 128.861058,86.3092511 C129.118271,84.2999967 129.265671,82.2559421 129.265671,80.1781862 C129.265671,53.4981449 107.431337,31.7941678 80.5935176,31.7941678 Z M80.6427742,-7.31931586e-05 C113.684104,-7.31931586e-05 143.915613,20.6312486 155.869674,51.3379749 C157.303264,55.0214206 156.979336,58.9434761 155.325505,62.2141124 C154.315484,63.5872161 153.27899,64.9376299 152.1958,66.2496172 C150.16583,68.7070776 148.003128,71.0492587 145.729018,73.2812841 C145.59077,71.9945483 145.406193,70.7228172 145.193306,69.4595033 C140.003481,38.656528 113.042133,15.1044332 80.6427742,15.1044332 C47.6150482,15.1044332 20.2374838,39.5791278 15.8153785,71.2607869 C15.8139077,71.2724978 15.8120693,71.2838428 15.8105986,71.2955537 C15.8098632,71.302141 15.8091279,71.3058007 15.8083925,71.3109242 C15.4017368,74.2408464 15.175245,77.2274933 15.175245,80.2664733 L15.175245,80.2664733 L15.175245,127.048613 C5.63942529,113.866525 -7.35362998e-05,97.7142586 -7.35362998e-05,80.2664733 C-7.35362998e-05,71.7819222 1.34196393,63.6051484 3.80432693,55.9220624 C3.81572506,55.8861978 3.82749087,55.8503331 3.83925667,55.8141025 C3.84955176,55.7775059 3.86131756,55.7456669 3.87198033,55.7119981 C14.3200178,23.4283252 44.7783855,-7.31931586e-05 80.6427742,-7.31931586e-05 Z" id="Combined-Shape" fill="#043F9E"></path>
                    <path d="M33.9169068,204.499103 L38.0472894,204.499103 C38.701411,204.499103 39.2480156,204.226159 39.6867425,203.678051 C40.1258302,203.132163 40.3451936,202.390998 40.3451936,201.455295 C40.3451936,200.979307 40.2766425,200.551769 40.1388188,200.17194 C40.0006343,199.792111 39.8198759,199.469978 39.5965437,199.20591 C39.3728507,198.941102 39.1101919,198.742497 38.8096495,198.610463 C38.5080248,198.478429 38.2024313,198.411487 37.8928691,198.411487 L33.9169068,198.411487 L33.9169068,204.499103 Z M30.3533333,214 L30.3533333,195.209756 L38.1248604,195.209756 C38.9683994,195.209756 39.7469953,195.390239 40.4617304,195.752316 C41.1753832,196.113652 41.7908997,196.59038 42.3075583,197.181389 C42.8238561,197.772398 43.2283075,198.442924 43.5212731,199.192595 C43.813878,199.942637 43.96,200.696747 43.96,201.455295 C43.96,202.249718 43.8218155,203.02158 43.5468896,203.771252 C43.2712421,204.521294 42.8841089,205.187381 42.3851293,205.769514 C41.885428,206.351647 41.2832609,206.819128 40.5775457,207.172698 C39.8718304,207.525528 39.0972033,207.700834 38.254025,207.700834 L33.9169068,207.700834 L33.9169068,214 L30.3533333,214 Z" id="Fill-5" fill="#043F9E"></path>
                    <path d="M49.6482397,204.604513 C49.6482397,205.405006 49.7673643,206.179606 50.0077662,206.927219 C50.2470918,207.675925 50.5937011,208.336377 51.0472356,208.910763 C51.50077,209.485148 52.0572827,209.945751 52.7164146,210.294029 C53.3751877,210.641942 54.1243807,210.815899 54.9632759,210.815899 C55.8186763,210.815899 56.5764807,210.637566 57.2352539,210.280535 C57.894027,209.924234 58.4505396,209.450503 58.9040741,208.858612 C59.3579673,208.267087 59.700271,207.602258 59.931344,206.861939 C60.1627757,206.122714 60.2779534,205.370725 60.2779534,204.604513 C60.2779534,203.80475 60.1534467,203.030515 59.9058685,202.282538 C59.657214,201.53456 59.3062989,200.873379 58.8527644,200.298264 C58.39923,199.724243 57.8430762,199.268017 57.1839442,198.928856 C56.5248123,198.58933 55.7849483,198.41975 54.9632759,198.41975 C54.1067991,198.41975 53.3454066,198.598083 52.6776632,198.954749 C52.0099199,199.311415 51.4537661,199.781499 51.008843,200.364273 C50.5635612,200.947046 50.2255632,201.608227 49.9948491,202.347817 C49.7634174,203.087042 49.6482397,203.839031 49.6482397,204.604513 M54.9370829,214 C53.6023138,214 52.3909749,213.734871 51.303784,213.203519 C50.2169518,212.673626 49.2840487,211.968681 48.5054334,211.090145 C47.7264592,210.211609 47.1229427,209.206526 46.6952425,208.075989 C46.2671834,206.945088 46.0533333,205.78793 46.0533333,204.604513 C46.0533333,203.369676 46.2797417,202.18626 46.7339938,201.056088 C47.1871695,199.925187 47.8122146,198.92448 48.6084115,198.054331 C49.4038908,197.184183 50.3497111,196.493462 51.4455135,195.979615 C52.540957,195.466497 53.7307674,195.209756 55.0142268,195.209756 C56.3324907,195.209756 57.5345005,195.484002 58.6220503,196.03213 C59.7085236,196.580258 60.6374799,197.297966 61.4078426,198.18489 C62.1778465,199.072544 62.7770573,200.081274 63.2051164,201.21254 C63.6328166,202.343076 63.8466667,203.491847 63.8466667,204.657393 C63.8466667,205.892595 63.6242051,207.070906 63.1796409,208.193055 C62.7343591,209.315568 62.1179254,210.306793 61.3310575,211.168189 C60.5431131,212.029585 59.6012398,212.717024 58.506155,213.229412 C57.4107114,213.742894 56.2209011,214 54.9370829,214" id="Fill-7" fill="#043F9E"></path>
                    <path d="M77.3003381,200.173806 C77.1787867,200.053228 76.95649,199.887614 76.634543,199.679871 C76.312231,199.472127 75.9202003,199.268742 75.4591809,199.069352 C74.9970666,198.870325 74.4962601,198.70108 73.9571267,198.562342 C73.4172632,198.423968 72.8686392,198.354599 72.3116198,198.354599 C71.3187674,198.354599 70.5785084,198.536556 70.0912077,198.90047 C69.6031769,199.264384 69.359709,199.775389 69.359709,200.433485 C69.359709,200.815559 69.4513289,201.131895 69.6342035,201.382495 C69.8170782,201.633821 70.0824472,201.854276 70.4310406,202.044586 C70.7789039,202.235986 71.2183871,202.4085 71.7502202,202.564671 C72.2809582,202.720842 72.8949206,202.885366 73.5913774,203.058606 C74.4962601,203.301579 75.3193786,203.561258 76.0600027,203.838007 C76.7995317,204.115846 77.4266348,204.462327 77.9402169,204.877814 C78.453799,205.29439 78.8502099,205.791594 79.1290846,206.372331 C79.4072293,206.952705 79.5466667,207.667822 79.5466667,208.516955 C79.5466667,209.503736 79.3597768,210.348874 78.985267,211.050552 C78.6107573,211.752594 78.1059356,212.31953 77.4704371,212.752813 C76.8345735,213.186096 76.1030749,213.502433 75.2763063,213.701096 C74.4488076,213.900123 73.5822519,214 72.6773691,214 C71.2840906,214 69.908333,213.792257 68.5500963,213.37677 C67.1918596,212.960557 65.9726953,212.371466 64.8933333,211.609135 L66.4866424,208.516955 C66.6436007,208.672036 66.9261256,208.876511 67.3356772,209.12711 C67.7441338,209.379162 68.2281493,209.629762 68.7855337,209.881088 C69.3421881,210.132414 69.9608958,210.344515 70.6398316,210.517756 C71.3187674,210.690997 72.0152242,210.777435 72.7299319,210.777435 C74.7149067,210.777435 75.707394,210.145489 75.707394,208.880869 C75.707394,208.482452 75.5938731,208.144324 75.3675611,207.866849 C75.1412492,207.5901 74.8189372,207.346764 74.4013551,207.139384 C73.983043,206.931277 73.4778564,206.740604 72.8857951,206.567363 C72.2937339,206.394122 71.632319,206.203812 70.9008204,205.994979 C70.0127285,205.752733 69.2425379,205.489059 68.5891534,205.202867 C67.9361339,204.916675 67.3915252,204.579273 66.9567872,204.18921 C66.5213193,203.799146 66.194627,203.349156 65.9770755,202.837788 C65.759159,202.326783 65.6507483,201.716264 65.6507483,201.005869 C65.6507483,200.069571 65.8248625,199.238598 66.1734559,198.510769 C66.5213193,197.782941 67.0042397,197.176055 67.6229474,196.690836 C68.240925,196.206343 68.9589179,195.838071 69.7780211,195.586382 C70.5960293,195.335782 71.4757257,195.209756 72.4160153,195.209756 C73.7220543,195.209756 74.9233327,195.413868 76.0205806,195.821001 C77.1174635,196.227771 78.074909,196.708995 78.8936472,197.26322 L77.3003381,200.173806 Z" id="Fill-9" fill="#043F9E"></path>
                    <path d="M90.9697089,205.424989 C91.5731396,205.424989 92.1508686,205.275945 92.7017785,204.974899 C93.2526883,204.675702 93.7283556,204.282936 94.1280353,203.797712 C94.527715,203.312857 94.8476823,202.761432 95.0875646,202.143436 C95.3274469,201.526181 95.4473881,200.899679 95.4473881,200.264671 C95.4473881,199.787953 95.3810852,199.34304 95.247362,198.927715 C95.1143837,198.513499 94.9229249,198.151429 94.6744753,197.842617 C94.4256533,197.534174 94.1280353,197.291931 93.7816214,197.11478 C93.434835,196.939108 93.0571321,196.850347 92.6488851,196.850347 L87.1580384,196.850347 L85.3183198,205.424989 L90.9697089,205.424989 Z M85.6651062,195.209756 L93.1282773,195.209756 C93.7860912,195.209756 94.3764849,195.346595 94.9009481,195.619534 C95.4246663,195.893582 95.8649472,196.25972 96.2206733,196.717946 C96.5756545,197.176912 96.8509232,197.702079 97.0468519,198.293077 C97.2424081,198.883704 97.34,199.488386 97.34,200.105641 C97.34,200.952195 97.1623232,201.790613 96.8069696,202.620155 C96.4512434,203.448956 95.9714788,204.194545 95.3676756,204.856181 C94.7635,205.517448 94.0613599,206.05186 93.261628,206.45757 C92.4622686,206.86328 91.6178381,207.06595 90.7294541,207.06595 L84.9719059,207.06595 L83.4793461,214 L81.64,214 L85.6651062,195.209756 Z" id="Fill-11" fill="#043F9E"></path>
                    <path d="M107.781147,206.669342 L106.212187,197.379995 L100.503818,206.669342 L107.781147,206.669342 Z M105.860211,195.209756 L107.483612,195.209756 L110.946667,214 L108.944446,214 L107.889273,208.125044 L99.8002432,208.125044 L96.2290627,214 L94.2,214 L105.860211,195.209756 Z" id="Fill-13" fill="#043F9E"></path>
                    <polygon id="Fill-15" fill="#043F9E" points="117.457612 206.960038 113.04 195.209756 115.089281 195.209756 118.734927 205.319045 126.717492 195.209756 128.74 195.209756 119.266676 207.013666 117.776662 214 115.940824 214"></polygon>
                    <g id="Group-19"></g>
                </g>
            </g>
        </g>
    </g>
</svg>