<?xml version="1.0" encoding="UTF-8"?>
<svg width="161px" height="64px" viewBox="0 0 161 64" version="1.1" xmlns="http://www.w3.org/2000/svg" xmlns:xlink="http://www.w3.org/1999/xlink">
    <title>34D3B0B7-A4AF-43BD-96D6-8E6DFB319C44@1.5x</title>
    <g id="Style-Guide" stroke="none" stroke-width="1" fill="none" fill-rule="evenodd">
        <g id="Styleguide" transform="translate(-793.000000, -5689.000000)" fill="#666666">
            <g id="Logo" transform="translate(64.000000, 4339.000000)">
                <g id="Logo-PostPay-horizontal-White" transform="translate(729.000000, 1350.000000)">
                    <path d="M30.0001422,7 C41.2967071,7 50.7100995,15.0632353 52.6340345,25.6505057 C52.7915946,26.5173488 52.9018043,27.4000043 52.9557426,28.2977964 C52.9826431,28.7450031 53.0000735,29.1946424 53.0000735,29.6483362 C53.0000735,31.4595977 52.7769091,33.219773 52.3670882,34.9094007 C49.9511209,44.868095 40.842967,52.2966725 30.0001422,52.2966725 C23.6210169,52.2966725 17.467801,49.6404621 13.1187031,45.0087847 L13.1187031,45.0087847 L11.8722215,43.6809497 L11.8722215,61.6009773 C11.8722215,62.9238118 10.7791827,64 9.43607892,64 C8.09297516,64 7.00007354,62.9238118 7.00007354,61.6009773 L7.00007354,61.6009773 L7.00007354,29.6483362 C7.00007354,28.959619 7.03671861,28.2795513 7.09806823,27.606241 C8.15048185,16.071579 18.0170654,7 30.0001422,7 Z M53.0078813,35 C53.3725928,35.072331 53.7348648,35.1814947 54.0879207,35.3399021 C56.5857404,36.4584964 57.689091,39.3592082 56.5528066,41.8189947 C51.7295614,52.2561388 41.1034595,59 29.4816179,59 C23.3888623,59 17.7203159,57.1831851 13.0000735,54.0742883 L13.0000735,54.0742883 L13.0000735,47.0655249 C17.455219,51.1687722 23.3692104,53.4921708 29.4816179,53.4921708 C40.9484131,53.4921708 50.5660355,45.5736655 53.0078813,35 Z M30.0001422,11.7976399 C20.0044088,11.7976399 11.8722215,19.8050588 11.8722215,29.6483362 C11.8722215,30.2244747 11.9025532,30.7934503 11.9569032,31.3556684 C12.8326794,40.4006231 20.5893575,47.4991678 30.0001422,47.4991678 C39.2174079,47.4991678 46.8443872,40.6887599 47.977365,31.9103182 C48.0731638,31.1690282 48.1280628,30.4148991 48.1280628,29.6483362 C48.1280628,19.8050588 39.9958756,11.7976399 30.0001422,11.7976399 Z M29.8338495,0 C42.057471,0 53.2416003,7.63228771 57.6639984,18.9918395 C58.1943543,20.3544821 58.0745175,21.8053952 57.4626835,23.0153243 C57.0890268,23.5232861 56.7055764,24.022854 56.304851,24.5082066 C55.5538649,25.4173119 54.7537743,26.2837712 53.9124686,27.1094798 C53.8613237,26.6334687 53.7930399,26.1630084 53.7142822,25.6956619 C51.7943096,14.3005041 41.8199738,5.5877146 29.8338495,5.5877146 C17.6152609,5.5877146 7.48694646,14.6418078 5.85099107,26.3620233 C5.85044697,26.3663556 5.84976685,26.3705525 5.84922276,26.3748848 C5.84895071,26.3773217 5.84867867,26.3786755 5.84840662,26.3805709 C5.69796456,27.4644573 5.61417404,28.5693283 5.61417404,29.6935592 L5.61417404,29.6935592 L5.61417404,47 C2.08640294,42.1234589 7.35362998e-05,36.1481392 7.35362998e-05,29.6935592 C7.35362998e-05,26.5548105 0.496559541,23.5299199 1.40750934,20.6876627 C1.41172607,20.6743951 1.41607883,20.6611274 1.42043158,20.6477244 C1.42424024,20.634186 1.42859299,20.6224075 1.43253768,20.6099522 C5.29778324,8.66702961 16.5658392,0 29.8338495,0 Z" id="Combined-Shape"></path>
                    <path d="M75.4250994,23 C76.2310284,23 76.9749098,23.172893 77.6577778,23.5197418 C78.3396116,23.865882 78.9276847,24.3225603 79.4213076,24.8887139 C79.9145858,25.4548675 80.3010042,26.0971932 80.5809077,26.8153368 C80.8604665,27.5338346 81.0000735,28.2562296 81.0000735,28.982876 C81.0000735,29.7438885 80.8680501,30.4832894 80.6053821,31.2014329 C80.3420246,31.9199307 79.9721521,32.558005 79.49542,33.1156556 C79.0179984,33.6733063 78.4426795,34.1211274 77.7684293,34.4598276 C77.094179,34.7978192 76.3540894,34.9657521 75.5485051,34.9657521 L71.4047616,34.9657521 L71.4047616,41 L68.0000735,41 L68.0000735,23 L75.4250994,23 Z M90.5614367,23 C91.8209245,23 92.9693415,23.2627125 94.0084018,23.7877882 C95.0464337,24.3128639 95.9339715,25.0003882 96.6699868,25.8500116 C97.4056593,26.7003338 97.9781538,27.6666408 98.3871274,28.7503299 C98.7957582,29.8333204 99.0000735,30.9337784 99.0000735,32.0503067 C99.0000735,33.2335611 98.7875307,34.3623166 98.3627878,35.437272 C97.9373593,36.5125767 97.3484099,37.4621147 96.5966253,38.2872836 C95.8438122,39.1124524 94.9439332,39.7709805 93.8976739,40.2618197 C92.8510717,40.753707 91.7143103,41 90.4877323,41 C89.2124752,41 88.0551451,40.7460213 87.0164276,40.2370158 C85.978053,39.7294077 85.0867442,39.0541107 84.3428443,38.2125223 C83.5986015,37.3709339 83.0219933,36.4081205 82.6133625,35.32513 C82.2043889,34.2417902 82.0000735,33.1332971 82.0000735,31.9996506 C82.0000735,30.8167456 82.2163873,29.6830991 82.6503861,28.600458 C83.0833565,27.5171182 83.6805333,26.558497 84.441231,25.7249437 C85.2012431,24.8913904 86.1048931,24.2297182 87.151838,23.7374816 C88.1984401,23.2459436 89.3352016,23 90.5614367,23 Z M108.187349,23 C109.435157,23 110.582875,23.1955274 111.631201,23.5855384 C112.679179,23.9752015 113.593936,24.4361869 114.37617,24.9671028 L112.8539,27.7552815 C112.737768,27.6397742 112.525382,27.4811257 112.21779,27.2821192 C111.909848,27.0831127 111.535297,26.8882811 111.094832,26.6972766 C110.653322,26.50662 110.174844,26.3444923 109.659749,26.2115894 C109.143956,26.0790343 108.619793,26.0125829 108.087608,26.0125829 C107.139023,26.0125829 106.431769,26.1868875 105.966195,26.5354968 C105.499924,26.8841062 105.267311,27.3736204 105.267311,28.0040397 C105.267311,28.3700446 105.354846,28.6730773 105.529567,28.9131376 C105.704288,29.1538937 105.957826,29.3650772 106.290877,29.5473839 C106.62323,29.7307343 107.043119,29.8959932 107.551239,30.045596 C108.058314,30.1951988 108.644902,30.3528036 109.310307,30.5187583 C110.174844,30.7515125 110.961263,31.0002706 111.668866,31.2653807 C112.375422,31.5315345 112.974565,31.863444 113.465249,32.261457 C113.955932,32.6605138 114.334669,33.1368073 114.60111,33.693121 C114.866853,34.2490867 115.000074,34.9341284 115.000074,35.7475501 C115.000074,36.692831 114.821516,37.5024257 114.463704,38.1745946 C114.105893,38.8471114 113.623579,39.3902043 113.016415,39.8052651 C112.408902,40.2203259 111.710018,40.5233585 110.920111,40.7136672 C110.129508,40.9043238 109.301588,41 108.43705,41 C107.105893,41 105.791474,40.8009935 104.493796,40.4029805 C103.196118,40.0042716 102.031311,39.4399559 101.000074,38.7096855 L102.522343,35.7475501 C102.672304,35.8961092 102.942232,36.0919845 103.333523,36.3320448 C103.723768,36.5734967 104.186203,36.813557 104.718736,37.0543132 C105.250572,37.2950693 105.841694,37.4982508 106.490359,37.6642055 C107.139023,37.8301602 107.804428,37.9129636 108.48727,37.9129636 C110.383742,37.9129636 111.331979,37.3075942 111.331979,36.0961594 C111.331979,35.7144983 111.223519,35.3905909 111.007298,35.124785 C110.791076,34.8596749 110.483135,34.6265729 110.084171,34.4279143 C109.68451,34.2285598 109.201847,34.0459053 108.636184,33.8799505 C108.07052,33.7139958 107.438595,33.5316891 106.739711,33.3316389 C105.891215,33.0995806 105.155364,32.8469954 104.531112,32.5728396 C103.907208,32.2986837 103.386881,31.9754721 102.971526,31.601813 C102.555474,31.2281539 102.243348,30.7970891 102.035496,30.3072269 C101.827296,29.8177127 101.723718,29.2328701 101.723718,28.5523513 C101.723718,27.6554303 101.89007,26.8594043 102.223121,26.1621857 C102.555474,25.464967 103.016863,24.8836036 103.607985,24.4187912 C104.19841,23.9546746 104.88439,23.6018903 105.666973,23.3607863 C106.448509,23.120726 107.288983,23 108.187349,23 Z M127.976135,23 C128.604619,23 129.16869,23.1310843 129.669769,23.3925443 C130.170137,23.6550672 130.590787,24.0058063 130.930653,24.4447615 C131.269807,24.8844254 131.532803,25.3875057 131.719996,25.9536481 C131.906833,26.5194363 132.000074,27.0986872 132.000074,27.6899837 C132.000074,28.5009349 131.830319,29.304092 131.490809,30.0987462 C131.150943,30.892692 130.692569,31.6069242 130.115687,32.2407345 C129.538449,32.8741906 128.867615,33.3861279 128.10354,33.7747751 C127.339821,34.1634224 126.53304,34.3575688 125.684265,34.3575688 L120.183423,34.3575688 L118.757411,41 L117.000074,41 L120.845716,23 L127.976135,23 Z M140.691423,23 L144.000074,41 L142.087124,41 L141.078997,35.3721214 L133.350624,35.3721214 L129.938668,41 L128.000074,41 L139.140402,23 L140.691423,23 Z M147.957985,23 L151.441086,32.6841318 L159.067741,23 L161.000074,23 L151.949127,34.3074834 L150.525547,41 L148.771562,41 L150.220722,34.2561115 L146.000074,23 L147.957985,23 Z M90.5127575,26.0749942 C89.6944676,26.0749942 88.9670225,26.2458272 88.3290512,26.5874932 C87.6910798,26.9291592 87.1597227,27.3794736 86.734637,27.9377378 C86.3092084,28.4960019 85.9862804,29.1293766 85.7658529,29.837862 C85.5447398,30.545998 85.4346975,31.2663613 85.4346975,31.9996506 C85.4346975,32.7664778 85.5485107,33.5085009 85.7781941,34.224672 C86.0068491,34.9418912 86.3380046,35.5745672 86.7713177,36.1247962 C87.2046309,36.6750252 87.7363308,37.1162565 88.3660747,37.4498874 C88.9954758,37.783169 89.7112653,37.9498098 90.5127575,37.9498098 C91.3300191,37.9498098 92.054036,37.7789768 92.6834371,37.4369614 C93.3128382,37.0956447 93.8445381,36.6418368 94.2778513,36.0748389 C94.7115073,35.5081904 95.038549,34.8713221 95.2593194,34.162138 C95.4804325,33.454002 95.5904748,32.7336387 95.5904748,31.9996506 C95.5904748,31.2335222 95.4715194,30.4918485 95.2349798,29.775328 C94.9974117,29.0588075 94.6621425,28.4254328 94.2288293,27.8745051 C93.7955162,27.3246254 93.264159,26.8875864 92.6344151,26.5626892 C92.0046712,26.2374427 91.2977949,26.0749942 90.5127575,26.0749942 Z M139.476685,25.0789671 L134.02283,33.9776404 L140.975692,33.9776404 L139.476685,25.0789671 Z M127.518117,24.5715945 L122.272085,24.5715945 L120.514392,32.7856201 L125.913808,32.7856201 C126.490334,32.7856201 127.042305,32.6428445 127.568652,32.354459 C128.094999,32.067845 128.549458,31.6915976 128.931317,31.2267798 C129.313177,30.7623162 129.618878,30.2340819 129.848065,29.6420769 C130.077252,29.0507804 130.191846,28.4506269 130.191846,27.8423249 C130.191846,27.3856555 130.128499,26.9594544 130.000738,26.5615958 C129.873689,26.1648001 129.690766,25.8179582 129.453394,25.5221328 C129.215666,25.2266617 128.931317,24.994607 128.600349,24.824906 C128.269024,24.6566221 127.908162,24.5715945 127.518117,24.5715945 Z M75.2034517,26.0670787 L71.4047616,26.0670787 L71.4047616,31.8986734 L75.350987,31.8986734 C75.9759439,31.8986734 76.4981776,31.6372082 76.9173434,31.1121521 C77.336854,30.5892217 77.5464369,29.8792269 77.5464369,28.982876 C77.5464369,28.5269063 77.4809422,28.1173483 77.3492635,27.7534937 C77.21724,27.389639 77.044541,27.0810534 76.8311663,26.8280912 C76.6174469,26.5744203 76.3664989,26.3841672 76.0793565,26.2576861 C75.7911801,26.131205 75.4992118,26.0670787 75.2034517,26.0670787 Z" id="Combined-Shape"></path>
                </g>
            </g>
        </g>
    </g>
</svg>